{
  "iisSettings": {
    "windowsAuthentication": false,
    "anonymousAuthentication": true,
    "iisExpress": {
      "applicationUrl": "http://localhost:51474/",
      "sslPort": 0
    }
  },
  "profiles": {
    "IIS Express DEVELOP": {
      "commandName": "IISExpress",
      "launchBrowser": true,
      "launchUrl": "admin/home",
      "environmentVariables": {
        "ASPNETCORE_ENVIRONMENT": "Develop"
      }
    },
    "IIS Express STABLE": {
      "commandName": "IISExpress",
      "launchBrowser": true,
      "launchUrl": "service/status",
      "environmentVariables": {
        "ASPNETCORE_ENVIRONMENT": "stable"
      }
    },
    "IIS Express STAGING": {
      "commandName": "IISExpress",
      "launchBrowser": true,
      "launchUrl": "service/status",
      "environmentVariables": {
        "ASPNETCORE_ENVIRONMENT": "staging"
      }
    },
    "IIS Express MASTER": {
      "commandName": "IISExpress",
      "launchBrowser": true,
      "launchUrl": "service/status",
      "environmentVariables": {
        "ASPNETCORE_ENVIRONMENT": "master"
      }
    },
    "Faradise.Design": {
      "commandName": "Project",
      "launchBrowser": true,
      "launchUrl": "service/status",
      "environmentVariables": {
        "ASPNETCORE_ENVIRONMENT": "Develop"
      },
      "applicationUrl": "http://localhost:51475/"
    }
  }
}